root\controller\Controller.class
root\model\dao\exceptions\IllegalOrphanException.class
root\model\dao\exceptions\NonexistentEntityException.class
root\model\dao\exceptions\PreexistingEntityException.class
root\model\entities\Cliente.class
root\model\dao\ClienteDAO.class
